\relax 
\@writefile{toc}{\contentsline {section}{\numberline {1}Introduction}{1}}
\newlabel{error}{{1}{1}}
\newlabel{compl_error}{{2}{1}}
\@writefile{toc}{\contentsline {section}{\numberline {2}Calculating the error function using a differential equation}{1}}
\newlabel{err-plot}{{2}{1}}
\@writefile{lof}{\contentsline {figure}{\numberline {1}{\ignorespaces Calculated values of the error function.}}{1}}
