\relax 
\providecommand\hyper@newdestlabel[2]{}
\providecommand\HyperFirstAtBeginDocument{\AtBeginDocument}
\HyperFirstAtBeginDocument{\ifx\hyper@anchor\@undefined
\global\let\oldcontentsline\contentsline
\gdef\contentsline#1#2#3#4{\oldcontentsline{#1}{#2}{#3}}
\global\let\oldnewlabel\newlabel
\gdef\newlabel#1#2{\newlabelxx{#1}#2}
\gdef\newlabelxx#1#2#3#4#5#6{\oldnewlabel{#1}{{#2}{#3}}}
\AtEndDocument{\ifx\hyper@anchor\@undefined
\let\contentsline\oldcontentsline
\let\newlabel\oldnewlabel
\fi}
\fi}
\global\let\hyper@last\relax 
\gdef\HyperFirstAtBeginDocument#1{#1}
\providecommand\HyField@AuxAddToFields[1]{}
\providecommand\HyField@AuxAddToCoFields[2]{}
\@writefile{toc}{\contentsline {section}{\numberline {1}Introduction}{1}{section.1}}
\newlabel{ODE}{{1}{1}{Introduction}{equation.1.1}{}}
\newlabel{sqrt}{{2}{1}{Introduction}{equation.1.2}{}}
\newlabel{sqrt_power}{{4}{1}{Introduction}{equation.1.4}{}}
\@writefile{toc}{\contentsline {section}{\numberline {2}Answer to theoretical questions}{1}{section.2}}
\@writefile{toc}{\contentsline {section}{\numberline {3}Description of the program implementation}{1}{section.3}}
\@writefile{toc}{\contentsline {section}{\numberline {4}Results}{2}{section.4}}
\newlabel{plot}{{4}{2}{Results}{section.4}{}}
\@writefile{lof}{\contentsline {figure}{\numberline {1}{\ignorespaces Plot of solutions to the differential equation.}}{2}{figure.1}}
